module gitlab.com/akabio/ripgen-vscode

go 1.18

require gitlab.com/akabio/ripgen-ls v0.0.3

require (
	github.com/antlr/antlr4 v0.0.0-20201029161626-9a95f0cc3d7c // indirect
	github.com/gorilla/websocket v1.5.0 // indirect
	github.com/hashicorp/errwrap v1.0.0 // indirect
	github.com/hashicorp/go-multierror v1.1.1 // indirect
	github.com/iancoleman/strcase v0.2.0 // indirect
	github.com/jinzhu/inflection v1.0.0 // indirect
	github.com/lucasb-eyer/go-colorful v1.2.0 // indirect
	github.com/mattn/go-isatty v0.0.14 // indirect
	github.com/mattn/go-runewidth v0.0.13 // indirect
	github.com/muesli/termenv v0.12.0 // indirect
	github.com/petermattis/goid v0.0.0-20180202154549-b0b1615b78e5 // indirect
	github.com/pkg/errors v0.9.1 // indirect
	github.com/rivo/uniseg v0.2.0 // indirect
	github.com/sasha-s/go-deadlock v0.3.1 // indirect
	github.com/sourcegraph/jsonrpc2 v0.1.0 // indirect
	github.com/tliron/glsp v0.1.1 // indirect
	github.com/tliron/kutil v0.1.62 // indirect
	github.com/vmihailenco/msgpack/v5 v5.3.5 // indirect
	github.com/vmihailenco/tagparser/v2 v2.0.0 // indirect
	gitlab.com/akabio/fmtid v0.2.0 // indirect
	gitlab.com/akabio/gogen v0.5.4 // indirect
	gitlab.com/akabio/iotool v0.5.0 // indirect
	gitlab.com/akabio/ripgen v0.16.4 // indirect
	golang.org/x/crypto v0.0.0-20220722155217-630584e8d5aa // indirect
	golang.org/x/mod v0.5.1 // indirect
	golang.org/x/sys v0.0.0-20220728004956-3c1f35247d10 // indirect
	golang.org/x/term v0.0.0-20220722155259-a9ba230a4035 // indirect
	golang.org/x/tools v0.1.9 // indirect
	golang.org/x/xerrors v0.0.0-20200804184101-5ec99f83aff1 // indirect
)
